[
    {"Nombres": "Alan de Jesus Sanchez Tovar", "Foto": "assets/img/alan-sanchez.jpg", "Cargo": "Profesional en Formación"},
    {"Nombres": "Alvaro Jose Vergara Garcia", "Foto": "assets/img/alvaro-vergara.jpg", "Cargo": "Profesional en Formación"}, 
    {"Nombres": "Amanda Marcela Quintana Julio", "Foto": "assets/img/amanda-quintana.jpg", "Cargo": "Profesional en Formación"},
    {"Nombres": "Andrés Felipe Molinares Bolaños", "Foto": "assets/img/andres-molinares.jpg", "Cargo": "Profesional en Formación"},
    {"Nombres": "Andres Fernando Garcia Meza", "Foto": "assets/img/andres-garcia.jpg", "Cargo": "Profesional en Formación"}, 
    {"Nombres": "Angélica Patricia Morales Daza", "Foto": "assets/img/angelica-morales.jpg", "Cargo": "Profesional en Formación"},
    {"Nombres": "Danith Ester Babilonia Meza", "Foto": "assets/img/danith-babilonia.jpg", "Cargo": "Profesional en Formación"}, 
    {"Nombres": "Deiver Jose Vazquez Moreno", "Foto": "assets/img/deiver-vazquez.jpg", "Cargo": "Profesional en Formación"},
    {"Nombres": "Erick De Jesus Contreras Barrios", "Foto": "assets/img/erick-contreras.jpg", "Cargo": "Profesional en Formación"},
    {"Nombres": "Erik Manuel Herazo Jimenez", "Foto": "assets/img/erick-herazo.jpg", "Cargo": "Profesional en Formación"},
    {"Nombres": "Ever Josue Navarro Padilla", "Foto": "assets/img/ever-navarro.jpg", "Cargo": "Profesional en Formación"}, 
    {"Nombres": "Herly de Jesus Castillo Castillo", "Foto": "assets/img/herly-castillo.jpg", "Cargo": "Profesional en Formación"},
    {"Nombres": "Isaac Daniel Benavides Torres", "Foto": "assets/img/isaac-benavides.jpg", "Cargo": "Profesional en Formación"},
    {"Nombres": "Jair Calderón Velaides", "Foto": "assets/img/jair-calderon.jpg", "Cargo": "Profesional en Formación"},
    {"Nombres": "Jhonatan Maunuel Alvarez De la hoz", "Foto": "assets/img/jhonatan-alvarez.jpg", "Cargo": "Profesional en Formación"},
    {"Nombres": "Jorge Luis Zetien Luna", "Foto": "assets/img/jorge-zetien.jpg", "Cargo": "Profesional en Formación"},
    {"Nombres": "Juan José Payares Trocha", "Foto": "assets/img/juan-payares.jpg", "Cargo": "Profesional en Formación"},
    {"Nombres": "Juan Pablo Lara Angulo", "Foto": "assets/img/juan-lara.jpg", "Cargo": "Profesional en Formación"},
    {"Nombres": "Juan Sebastian Sierra Bravo", "Foto": "assets/img/juan-sierra.jpg", "Cargo": "Profesional en Formación"},
    {"Nombres": "Leandro Meza Vasquez", "Foto": "assets/img/leandro-meza.jpg", "Cargo": "Profesional en Formación"},
    {"Nombres": "Luis Armando Tilve Salgado", "Foto": "assets/img/luis-tilve.jpg", "Cargo": "Profesional en Formación"},
    {"Nombres": "Luis Carlos Payares Joly", "Foto": "assets/img/luis-payares.jpg", "Cargo": "Profesional en Formación"},
    {"Nombres": "Maria De los Angeles Anaya Guardo", "Foto": "assets/img/maria-anaya.jpg", "Cargo": "Profesional en Formación"},
    {"Nombres": "Mauricio Andrés Arias Rodelo", "Foto": "assets/img/mauricio-ariaspng.jpg", "Cargo": "Profesional en Formación"},
    {"Nombres": "Óscar de Jesús Ballestas Ortega", "Foto": "assets/img/oscar-ballestas.jpg", "Cargo": "Profesional en Formación"},    
    {"Nombres": "Ricardo Enrique Jaramillo Acevedo", "Foto": "assets/img/ricardo-jaramillo.jpg", "Cargo": "Profesional en Formación"},
    {"Nombres": "Ronald Paternina Castro", "Foto": "assets/img/ronald-paternina.jpg", "Cargo": "Profesional en Formación"}, 
    {"Nombres": "Steeven jose altamiranda gonzalez", "Foto": "assets/img/steeven-altamiranda.jpg", "Cargo": "Profesional en Formación"},
    {"Nombres": "Yilber Enrique Molina Devoz", "Foto": "assets/img/yilber-molina.jpg", "Cargo": "Profesional en Formación"}, 
    {"Nombres": "Zuleydis Barrios Peña", "Foto": "assets/img/zuleydis-barrios.jpg", "Cargo": "Profesional en Formación"},
    {"Nombres": "Sara Lopez Anaya","Foto": "assets/img/saralopez.jpg","Cargo": "Niña en Formación"}
]